%!PS-Adobe-1.0
%%EndComments

/DataString 256 string def
/IM {
  save translate scale image grestore
  } bind def

%%EndProlog

0 1 255 { DataString exch dup put } bind for
1 256 8 [1 0 0 256 0 0] { DataString }

72 72 144 36 IM

showpage

%%Trailer
