%!PS-Adobe-1.0
%%BoundingBox: 0 0 148 21
%%EndComments
%%Pages: 0
%%EndProlog

gsave

% scale appropriately
148 21 scale

% allocate space for one scanline of input
/picstr 26 string def

% read and dump the image
205 28 1
[205 0 0 -28 0 28]
{ currentfile picstr readhexstring pop }
image



0000000000000000000000000000000000000000000000000008
7fffffffffffffffffffffffffffffffffffffffffffffffffe8
4000000001c00000000000003800000000007000000000000028
5ffffffffddfffffffffffffbbffffffffff77ffffffffffffa8
5ffffffffddfffffffffffffbbffffffffff77ffffffffffffa8
400cfffffddc5ffffffffff9b800cff3fff37003ffffffff3fa8
53ccfffffddb9ffffffffff1b8cc8ff3ffe374f3fffffffe3fa8
53efffffddd3dffffffffff9b9cecffffff374fbffffffef3fa8
53ffffff9dd3fffffffffff9bbcfcffffff374ffffffffcf3fa8
53fce4e505d1fe1e1e1e67c1bbcfccf3938374ff8718e48333a8
53d8c4d99dd87ccccccc4399bbcfc863133374f7339cc4cf21a8
501ce3cd9ddc39e9f9e63339bbcfc6738e737406799ce3cf19a8
53dce7c79ddf1809f9e67339bbcfce739e7374f6799ce7cf39a8
53fce7e39ddf89f9f9e67339bbcfce739e7374fe799ce7cf39a8
53fce7f19ddfc9f9f9e67339bbcfce739e7374fe799ce7cf39a8
53fce7d99dd7c9f9f9e67339bbcfce739e7374fe799ce7cf39a8
53fce7cd89d39cccccce7399bbcfce739f3374ff3388e7c539a8
41f843d3c5d47e1e1e1c31c0bb8786210f81707f87c443e218a8
5ffffffffddfffffffffffffbbffffffffff77ffffffffffffa8
5ffffffffddfffffffffffffbbffffffffff77ffffffffffffa8
5ffffffffddfffffffffffffbbffffffffff77ffffffffffffa8
5ffffffffddfffffffffffffbbffffffffff77ffffffffffffa8
4000000001c00000000000003800000000007000000000000028
7fffffffffffffffffffffffffffffffffffffffffffffffffe8
7fffffffffffffffffffffffffffffffffffffffffffffffffe8
7fffffffffffffffffffffffffffffffffffffffffffffffffe8
0000000000000000000000000000000000000000000000000008
fffffffffffffffffffffffffffffffffffffffffffffffffff8



grestore
%%Trailer

