%!PS-Adobe-1.0
%%BoundingBox: 0 0 148 21
%%EndComments
%%Pages: 0
%%EndProlog

gsave

% scale appropriately
148 21 scale

% allocate space for one scanline of input
/picstr 26 string def

% read and dump the image
205 28 1
[205 0 0 -28 0 28]
{ currentfile picstr readhexstring pop }
image



0000000000000000000000000000000000000000000000000008
7fffffffffffffffffffffffffffffffffffffffffffffffffe8
7fffffffffffffffffffffffffffffffffffffffffffffffffe8
7fffffffffffffffffffffffffffffffffffffffffffffffffe8
7fffffffffffffffffffffffffffffffffffffffffffffffffe8
600cfffffffc5ffffffffff9fc00cff3fff3f803ffffffff3fe8
73ccfffffffb9ffffffffff1fccc8ff3ffe3fcf3fffffffe3fe8
73efffffdff3dffffffffff9fdcecffffff3fcfbffffffef3fe8
73ffffff9ff3fffffffffff9ffcfcffffff3fcffffffffcf3fe8
73fce4e507f1fe1e1e1e67c1ffcfccf39383fcff8718e48333e8
73d8c4d99ff87ccccccc4399ffcfc8631333fcf7339cc4cf21e8
701ce3cd9ffc39e9f9e63339ffcfc6738e73fc06799ce3cf19e8
73dce7c79fff1809f9e67339ffcfce739e73fcf6799ce7cf39e8
73fce7e39fff89f9f9e67339ffcfce739e73fcfe799ce7cf39e8
73fce7f19fffc9f9f9e67339ffcfce739e73fcfe799ce7cf39e8
73fce7d99ff7c9f9f9e67339ffcfce739e73fcfe799ce7cf39e8
73fce7cd8bf39cccccce7399ffcfce739f33fcff3388e7c539e8
61f843d3c7f47e1e1e1c31c0ff8786210f81f87f87c443e218e8
7fffffffffffffffffffffffffffffffffffffffffffffffffe8
7fffffffffffffffffffffffffffffffffffffffffffffffffe8
7fffffffffffffffffffffffffffffffffffffffffffffffffe8
7fffffffffffffffffffffffffffffffffffffffffffffffffe8
7fffffffffffffffffffffffffffffffffffffffffffffffffe8
7fffffffffffffffffffffffffffffffffffffffffffffffffe8
7fffffffffffffffffffffffffffffffffffffffffffffffffe8
7fffffffffffffffffffffffffffffffffffffffffffffffffe8
0000000000000000000000000000000000000000000000000008
fffffffffffffffffffffffffffffffffffffffffffffffffff8



grestore
%%Trailer

