45 117 	   2 9 14 23 24 -1
44 108 	   3 5 8 12 13 205 -1
47 117 	   0 4 9 14 172 223 229 -1
45 106 	   1 5 7 11 13 18 -1
50 115 	   2 6 9 20 21 26 223 229 341 -1
50 111 	   1 3 12 17 18 31 -1
46 105 	   4 20 22 26 27 337 341 -1
43 111 	   3 11 13 15 16 -1
47 114 	   1 12 29 166 202 205 211 -1
45 112 	   0 2 4 21 23 28 -1
47 108 	   12 17 23 28 29 31 -1
44 111 	   3 7 16 18 25 30 -1
44 104 	   1 5 8 10 17 29 -1
45 119 	   1 3 7 15 205 209 -1
45 102 	   0 2 24 162 166 172 223 -1
47 105 	   7 13 16 85 209 339 -1
45 110 	   7 11 15 25 339 -1
49 106 	   5 10 12 31 -1
48 113 	   3 5 11 20 30 31 -1
49 109 	   22 25 27 30 333 334 336 -1
46 114 	   4 6 18 22 26 30 31 -1
44 115 	   4 9 26 28 -1
48 106 	   6 19 20 27 30 -1
50 109 	   0 9 10 24 28 29 -1
46 112 	   0 14 23 29 166 -1
44 113 	   11 16 19 30 333 339 -1
45 108 	   4 6 20 21 28 31 -1
47 110 	   6 19 22 334 337 -1
48 111 	   9 10 21 23 26 29 31 -1
47 112 	   8 10 12 23 24 28 166 -1
48 109 	   11 18 19 20 22 25 31 -1
46 110 	   5 10 17 18 20 26 28 30 -1
79 62 	   33 37 41 235 238 -1
79 64 	   32 34 36 37 235 245 -1
79 68 	   33 35 36 37 38 39 40 100 -1
78 66 	   34 36 39 64 65 123 -1
80 64 	   33 34 35 64 65 245 -1
81 67 	   32 33 34 40 41 102 -1
80 67 	   34 39 100 123 -1
81 63 	   34 35 38 123 -1
80 60 	   34 37 100 102 -1
81 57 	   32 37 44 102 238 247 -1
81 55 	   43 44 45 99 247 -1
81 59 	   42 45 46 98 99 -1
82 54 	   41 42 99 102 247 -1
79 75 	   42 43 247 -1
79 81 	   43 98 -1
81 78 	   48 49 50 65 67 123 -1
81 75 	   47 49 67 213 291 294 -1
60 72 	   47 48 50 119 124 294 -1
59 72 	   47 49 123 124 126 -1
59 75 	   52 54 55 145 147 282 283 -1
60 75 	   51 53 54 281 282 -1
61 76 	   52 54 281 282 -1
16 76 	   51 52 53 55 -1
15 67 	   51 54 145 148 149 -1
14 69 	   58 59 60 61 193 319 344 -1
16 73 	   60 344 345 346 348 -1
13 70 	   56 59 62 193 201 321 -1
13 67 	   56 58 61 62 -1
77 69 	   56 57 193 344 347 348 -1
30 63 	   56 59 62 317 319 321 -1
29 62 	   58 59 61 321 -1
19 90 	   64 65 66 242 285 287 -1
23 91 	   35 36 63 65 237 242 245 -1
21 91 	   35 36 47 63 64 66 67 123 -1
23 89 	   63 65 67 287 291 -1
30 87 	   47 48 65 66 291 -1
29 78 	   72 -1
29 83 	   70 71 72 73 -1
28 89 	   69 71 72 -1
28 87 	   69 70 72 175 176 178 357 -1
30 84 	   68 69 70 71 73 312 357 360 -1
23 85 	   69 72 312 313 -1
26 88 	   76 87 92 274 278 -1
21 87 	   77 206 -1
27 86 	   74 77 84 87 92 94 206 -1
80 54 	   75 76 84 87 203 206 207 -1
19 99 	   82 83 185 340 -1
16 101 	   80 83 180 185 191 303 304 356 359 -1
13 93 	   79 83 303 -1
85 57 	   82 85 -1
86 61 	   78 81 83 85 88 338 339 340 -1
82 59 	   78 79 80 82 88 180 185 303 -1
83 65 	   76 77 86 87 88 203 277 301 303 -1
81 61 	   15 81 82 86 88 209 339 -1
64 77 	   84 85 88 203 209 -1
65 81 	   74 76 77 84 277 278 -1
65 77 	   82 83 84 85 86 303 -1
43 33 	   94 -1
45 24 	   91 92 94 271 327 330 -1
47 21 	   90 92 93 262 271 -1
40 32 	   74 76 90 91 93 94 274 -1
47 16 	   91 92 262 263 274 -1
44 27 	   76 89 90 92 161 173 206 330 -1
71 52 	   97 98 101 307 361 366 -1
60 57 	   97 100 101 320 323 -1
67 50 	   95 96 101 307 320 -1
64 60 	   43 46 95 101 361 -1
66 57 	   42 43 44 101 102 -1
86 76 	   34 38 40 96 101 102 123 323 -1
84 78 	   95 96 97 98 99 100 102 -1
83 77 	   37 40 41 44 99 100 101 -1
88 76 	   104 105 149 150 -1
88 78 	   103 105 286 290 -1
84 76 	   103 104 146 150 286 -1
10 76 	   109 111 130 131 136 -1
39 51 	   108 111 -1
39 47 	   107 110 -1
35 41 	   106 111 135 136 -1
44 38 	   108 -1
37 46 	   106 107 109 -1
43 46 	   114 115 116 117 -1
37 36 	   115 117 -1
39 71 	   112 116 283 -1
39 73 	   112 113 117 -1
75 70 	   112 114 117 151 152 283 288 -1
37 66 	   112 113 115 116 241 285 288 -1
39 69 	   119 121 122 124 125 126 293 295 -1
40 66 	   49 118 120 124 293 294 297 -1
39 61 	   119 124 -1
78 72 	   118 122 125 -1
41 62 	   118 121 125 255 295 300 -1
37 70 	   35 38 39 47 50 65 100 126 323 -1
75 75 	   49 50 118 119 120 126 -1
78 76 	   118 121 122 126 255 318 319 -1
61 73 	   50 118 123 124 125 318 323 -1
65 74 	   128 132 133 142 314 316 -1
61 70 	   127 132 133 -1
62 74 	   133 135 315 -1
62 77 	   106 131 136 -1
64 75 	   106 130 132 134 136 -1
65 68 	   127 128 131 133 134 136 -1
63 67 	   127 128 129 132 135 136 314 315 -1
81 65 	   131 132 -1
38 97 	   109 129 133 136 -1
38 102 	   106 109 130 131 132 133 135 -1
37 107 	   138 140 144 -1
37 96 	   137 144 187 -1
36 106 	   141 142 144 316 358 -1
27 105 	   137 141 144 -1
26 103 	   139 140 142 144 -1
28 106 	   127 139 141 143 316 -1
25 105 	   142 -1
23 110 	   137 138 139 140 141 187 358 -1
26 100 	   51 55 147 148 -1
25 99 	   105 150 151 152 286 288 -1
25 108 	   51 145 148 152 283 -1
27 109 	   55 145 147 149 150 152 -1
28 108 	   55 103 148 150 -1
23 113 	   103 105 146 148 149 151 152 -1
28 103 	   116 146 150 152 288 -1
22 101 	   116 146 147 148 150 151 283 -1
23 68 	   156 157 354 -1
24 62 	   159 -1
24 65 	   158 -1
26 64 	   153 349 353 354 -1
32 80 	   153 159 354 -1
37 80 	   155 159 221 230 234 -1
38 81 	   154 157 158 229 234 341 354 -1
37 84 	   162 163 164 169 172 -1
38 83 	   94 164 165 168 173 326 330 -1
32 86 	   14 160 164 166 172 -1
37 78 	   160 169 170 172 -1
17 68 	   160 161 162 166 168 169 173 -1
21 59 	   161 168 171 326 -1
18 70 	   8 14 24 29 162 164 167 173 202 204 -1
22 58 	   166 204 -1
19 66 	   161 164 165 169 -1
16 65 	   160 163 164 168 170 -1
25 97 	   163 169 -1
25 90 	   165 326 -1
23 97 	   2 14 160 162 163 223 226 228 -1
26 94 	   94 161 164 166 204 206 -1
22 95 	   175 179 -1
25 93 	   71 174 178 179 200 304 305 347 357 359 -1
23 95 	   71 178 179 196 198 375 -1
26 90 	   178 179 -1
26 92 	   71 175 176 177 179 -1
25 95 	   174 175 176 177 178 196 200 -1
75 89 	   79 83 181 185 191 192 -1
77 85 	   180 185 186 192 342 351 -1
78 93 	   183 187 190 191 192 -1
78 89 	   182 184 188 192 -1
79 95 	   183 188 -1
76 94 	   78 79 83 180 181 189 340 342 -1
76 91 	   181 188 192 351 -1
73 88 	   138 144 182 190 191 358 -1
79 87 	   183 184 186 192 -1
39 80 	   185 335 340 342 -1
40 78 	   182 187 191 -1
33 110 	   79 180 182 187 190 192 356 358 -1
31 114 	   180 181 182 183 186 188 191 -1
29 101 	   56 58 60 197 200 201 321 347 -1
30 106 	   198 -1
29 104 	   196 198 201 310 391 -1
32 106 	   176 179 195 198 199 200 201 -1
29 106 	   193 200 347 -1
27 62 	   176 194 195 196 375 389 391 -1
33 114 	   196 200 -1
31 61 	   175 179 193 196 197 199 201 347 -1
30 118 	   58 193 195 196 200 306 310 321 -1
30 57 	   8 166 204 211 -1
33 103 	   77 84 86 207 209 -1
77 62 	   166 167 173 202 206 208 211 -1
75 54 	   1 8 13 207 209 210 211 -1
76 65 	   75 76 77 94 173 204 207 208 211 -1
78 59 	   77 203 205 206 209 210 211 -1
76 56 	   204 206 -1
76 63 	   13 15 85 86 203 205 207 210 -1
72 59 	   205 207 209 -1
75 66 	   8 202 204 205 206 207 -1
76 59 	   213 215 217 218 219 -1
74 63 	   48 212 215 219 264 291 294 -1
77 58 	   215 216 259 264 -1
79 56 	   212 213 214 218 220 264 -1
75 57 	   214 -1
14 80 	   212 218 219 -1
11 81 	   212 215 217 -1
15 81 	   212 213 217 289 290 291 -1
13 77 	   215 -1
11 77 	   158 222 227 230 231 234 -1
14 82 	   221 224 230 231 232 -1
12 88 	   2 4 14 172 226 229 -1
87 96 	   222 230 232 -1
84 88 	   227 228 231 -1
10 96 	   172 223 228 229 233 -1
10 90 	   221 225 228 231 233 234 -1
81 89 	   172 225 226 227 231 233 -1
12 120 	   2 4 159 223 226 233 234 341 -1
12 115 	   158 221 222 224 -1
11 104 	   221 222 225 227 228 -1
15 87 	   222 224 -1
17 83 	   226 227 228 229 234 -1
15 90 	   158 159 221 227 229 233 -1
16 86 	   32 33 238 240 244 245 246 -1
18 84 	   239 248 -1
20 82 	   64 240 242 244 245 -1
18 87 	   32 41 235 246 247 -1
54 69 	   236 243 246 247 248 -1
51 68 	   235 237 244 245 -1
58 74 	   117 244 248 285 -1
57 71 	   63 64 237 244 285 -1
27 90 	   239 244 246 248 -1
58 64 	   235 237 240 241 242 243 246 248 285 -1
57 73 	   33 36 64 235 237 240 -1
72 66 	   235 238 239 243 244 247 -1
68 69 	   41 42 44 45 238 239 246 -1
68 88 	   236 239 241 243 244 -1
75 80 	   251 252 253 256 346 -1
73 80 	   251 252 253 254 255 300 -1
82 83 	   249 250 253 254 256 257 272 273 275 346 -1
88 80 	   249 250 253 255 344 345 346 -1
86 80 	   249 250 251 252 256 -1
84 80 	   250 251 257 263 298 300 -1
85 83 	   122 125 250 252 300 319 344 -1
14 98 	   249 251 253 -1
87 80 	   251 254 263 272 274 -1
88 83 	   259 261 262 -1
16 94 	   214 258 261 264 -1
19 97 	   261 264 -1
22 79 	   258 259 260 262 263 264 298 -1
25 80 	   91 93 258 261 263 271 -1
27 76 	   93 254 257 261 262 274 298 -1
24 76 	   213 214 215 259 260 261 294 298 -1
14 63 	   266 268 270 271 327 329 330 -1
10 60 	   265 267 268 269 270 -1
10 55 	   266 268 270 332 -1
12 58 	   265 266 267 271 -1
85 64 	   266 270 -1
15 57 	   265 266 267 269 329 332 -1
12 62 	   90 91 262 265 268 327 -1
83 54 	   251 257 274 275 -1
33 55 	   251 275 276 277 278 346 347 -1
35 52 	   74 92 93 257 263 272 275 278 -1
34 47 	   251 272 273 274 278 -1
36 57 	   273 277 278 -1
12 69 	   84 87 273 276 278 301 347 -1
10 71 	   74 87 273 274 275 276 277 -1
12 72 	   280 282 283 -1
87 64 	   279 -1
12 66 	   52 53 282 284 -1
10 66 	   51 52 53 279 281 283 284 -1
85 68 	   51 114 116 147 152 279 282 -1
87 66 	   281 282 -1
13 73 	   63 117 241 242 244 287 288 -1
16 105 	   104 105 146 287 288 289 290 -1
20 114 	   63 66 285 286 288 289 291 292 -1
18 107 	   116 117 146 151 285 286 287 -1
18 118 	   219 286 287 290 291 292 -1
15 120 	   104 219 286 289 -1
31 94 	   48 66 67 213 219 287 289 292 -1
30 90 	   287 289 291 -1
29 91 	   118 119 295 296 297 298 299 -1
31 88 	   48 49 119 213 264 297 298 -1
32 98 	   118 122 293 299 300 -1
31 90 	   293 298 299 300 -1
14 74 	   119 293 294 298 -1
15 76 	   254 261 263 264 293 294 296 297 300 -1
16 78 	   293 295 296 300 -1
19 74 	   122 250 254 255 295 296 298 299 -1
17 75 	   84 277 302 303 304 305 347 -1
38 94 	   301 303 304 -1
63 51 	   79 80 83 84 88 301 302 304 -1
37 86 	   79 175 301 302 303 305 356 359 -1
34 95 	   175 301 304 347 -1
35 96 	   201 309 310 311 321 322 -1
38 92 	   95 97 308 309 311 320 322 364 366 -1
34 70 	   307 309 364 366 390 -1
27 72 	   306 307 308 310 311 390 -1
32 66 	   195 201 306 309 390 391 -1
81 70 	   306 307 309 321 322 -1
84 73 	   72 73 313 316 358 360 -1
85 54 	   73 312 314 315 316 -1
84 46 	   127 133 313 315 316 -1
83 48 	   129 133 313 314 -1
86 55 	   127 139 142 312 313 314 358 -1
23 35 	   61 319 321 322 -1
18 41 	   125 126 319 322 323 -1
25 38 	   56 61 125 255 317 318 322 325 344 -1
23 26 	   96 97 307 322 323 324 -1
25 29 	   58 61 62 193 201 306 311 317 322 -1
44 42 	   306 307 311 317 318 319 320 321 323 324 -1
41 45 	   96 100 123 126 318 320 322 324 -1
41 39 	   320 322 323 -1
25 52 	   319 344 -1
27 52 	   161 165 171 328 329 330 331 -1
27 55 	   90 265 271 330 -1
29 60 	   326 329 331 -1
85 42 	   265 270 326 328 330 331 332 -1
85 38 	   90 94 161 265 326 327 329 -1
87 35 	   326 328 329 332 -1
10 43 	   267 270 329 331 -1
82 36 	   19 25 335 336 338 339 343 -1
25 47 	   19 27 336 337 -1
25 49 	   189 333 336 340 342 343 -1
28 46 	   19 333 334 335 337 342 352 353 -1
26 47 	   6 27 334 336 341 352 -1
26 51 	   82 333 339 340 343 -1
28 49 	   15 16 25 82 85 333 338 -1
22 48 	   78 82 185 189 335 338 343 -1
13 49 	   4 6 159 229 337 352 354 -1
18 51 	   181 185 189 335 336 351 353 -1
28 52 	   333 335 338 340 -1
29 49 	   56 57 60 252 255 319 325 345 -1
27 44 	   57 252 344 346 -1
25 42 	   57 249 251 252 273 345 347 348 -1
26 43 	   60 175 193 197 200 273 277 301 305 346 348 -1
27 39 	   57 60 346 347 -1
37 99 	   156 350 353 354 355 -1
35 101 	   349 351 353 355 -1
22 106 	   181 186 342 350 353 -1
24 71 	   336 337 341 353 354 -1
22 67 	   156 336 342 349 350 351 352 354 -1
34 84 	   153 156 157 159 341 349 352 353 -1
36 79 	   349 350 -1
31 85 	   79 191 304 357 358 359 360 -1
38 74 	   71 72 175 356 359 360 -1
34 75 	   139 144 187 191 312 316 356 360 -1
15 71 	   79 175 304 356 357 -1
35 80 	   72 312 356 357 358 -1
18 58 	   95 98 363 364 366 -1
19 63 	   364 365 378 381 -1
20 69 	   361 364 365 -1
83 60 	   307 308 361 362 363 365 366 381 390 -1
32 117 	   362 363 364 -1
31 100 	   95 307 308 361 364 -1
30 109 	   368 369 370 371 372 -1
31 103 	   367 369 371 381 389 390 391 -1
77 65 	   367 368 370 389 395 -1
83 96 	   367 369 395 397 -1
85 90 	   367 368 372 -1
11 115 	   367 371 -1
88 111 	   374 375 377 387 389 -1
14 115 	   373 376 377 387 -1
69 76 	   176 198 373 376 377 389 -1
70 84 	   374 375 377 387 392 -1
85 78 	   373 374 375 376 -1
27 82 	   362 379 380 381 -1
33 61 	   378 380 382 -1
20 110 	   378 379 381 -1
18 113 	   362 364 368 378 380 390 -1
32 92 	   379 -1
33 93 	   384 386 387 388 389 394 396 -1
32 95 	   383 387 389 -1
34 89 	   386 388 393 394 -1
38 89 	   383 385 388 394 396 -1
35 92 	   373 374 376 383 384 388 389 392 -1
31 72 	   383 385 386 387 392 393 -1
28 68 	   198 368 369 373 375 383 384 387 391 395 396 -1
83 51 	   308 309 310 364 368 381 391 -1
86 50 	   195 198 310 368 389 390 -1
22 42 	   376 387 388 393 -1
25 57 	   385 388 392 -1
26 54 	   383 385 386 396 -1
13 108 	   369 370 389 396 397 -1
72 74 	   383 386 389 394 395 397 -1
30 92 	   370 395 396 -1
